{
    "form": "evaluacion",
    "crop": "maiz",
    "title": "evaluacion",
    "obj": "evaluation",
    "managment": "",
    "env": [
        "a campo en suelo",
        "bajo cubierta en suelo",
        "a campo en contenedores",
        "bajo cubierta en contenedores"
    ],
    "stages": [{
        "title": "Parcela",
        "items": [
            {
            "name": "Ubicación",
            "description": "Localidad o coordenadas",
            "type_format": "text"
        },{
            "name": "Superficie (m²)",
            "type_format": "numeric"
        },{
            "name": "Cantidad de surcos",
            "type_format": "numeric"
        },{
            "name": "Distancia entre surcos (cm)",
            "type_format": "numeric"
        },{
            "name": "Posición topográfica",
            "type_format": "optional",
            "options": [
                "Loma",
                "Medialoma",
                "Bajo dulce",
                "Bajo alcalino",
                "No sé"
            ]
        },{
            "name": "Textura del suelo",
            "type_format": "text"
        },{
            "name": "Cultivo antecesor",
            "type_format": "text"
        },{
            "name": "Riego",
            "type_format": "optional",
            "options": ["sí", "no"]
        },{
            "name": "Cultivo asociado",
            "type_format": "text"
        },{
            "name": "Profundidad del suelo (cm)",
            "type_format": "numeric"
        },{
            "name": "Taxonomía de suelo",
            "type_format": "text"
        },{
            "name": "Distancia a parcelas de otros maíces (m)",
            "type_format": "numeric"
        },{
            "name": "Comentarios generales",
            "type_format": "text"
        }]
    },{
        "title": "Siembra",
        "items": [{
            "name": "Tratamiento de semilla previo a la siembra",
            "type_format": "text"
        },{
            "name": "Metodo de siembra",
            "type_format": "optional",
            "options": [
                "Sembradora",
                "Por golpe",
                "Al voleo"
            ]
        },{
            "name": "Fecha de siembra",
            "type_format": "date"
        },{
            "name": "Distancia de siembra entre plantas (cm)",
            "type_format": "numeric"
        },{
            "name": "Semillas sembradas (kg/ha)",
            "type_format": "numeric"
        },{
            "name": "Densidad de siembra",
            "description": "Plantas buscadas/m²",
            "type_format": "numeric"
        },{
            "name": "Comentarios generales",
            "type_format": "text"
        }]
    },{
        "title": "Emergencia e implantación",
        "items": [{
            "name": "Fecha de emergencia",
            "type_format": "date",
            "description": "Fecha en que emerge el 70% de las plántulas"
        },{
            "name": "Plántulas emergidas",
            "type_format": "numeric",
            "description": "Cantidad de plántulas/m² que emergieron"
        },{
            "name": "Implantación",
            "type_format": "numeric",
            "description": "Cantidad de plantas logradas/m² vivas 15 días despues de la fecha de emergenca"
        },{
            "name": "Vigor de emergencia",
            "type_format": "optional",
            "options": [
                "Alto",
                "Medio",
                "Débil"
            ]
        },{
            "name": "Comentarios generales",
            "type_format": "text"
        }]
    },{
        "title": "Labores",
        "items": [{
            "name": "Fertilización",
            "type_format": "optional_multiple",
            "options": [
                "Fertilizantes sintéticos",
                "Biopreparados",
                "Compost",
                "Abono verde",
                "Preparados biodinámicos",
                "Otro",
                "Sin fertilización"
            ]
        },{
            "name": "Control de malezas",
            "type_format": "optional_multiple",
            "options": [
                "Herbicidas sintéticos",
                "Control mecánico",
                "Otro",
                "Sin control"
            ]
        },{
            "name": "Riego",
            "type_format": "optional_multiple",
            "options": [
                "Por goteo",
                "Por aspersión",
                "Por microaspersión",
                "Por surco",
                "Con manguera/regadera",
                "Sin riego"
            ]
        },{
            "name": "Control de plagas",
            "type_format": "optional_multiple",
            "options": [
                "Plaguicidas sintéticos",
                "Biopreparados",
                "Preparados biodinámicos",
                "Control mecánico",
                "Otro",
                "Sin control"
            ]
        },{
            "name": "Lámina de riego aplicada (mm)",
            "type_format": "numeric"
        },{
            "name": "Precipitación (mm)",
            "type_format": "numeric"
        },{
            "name": "Comentarios generales",
            "type_format": "text"
        }]
    },{
        "title": "Crecimiento y desarrollo",
        "items": [{
            "name": "Yolerancia al ataque por cogollero",
            "type_format": "optional",
            "options": [
                "1",
                "1.5",
                "2",
                "2.5",
                "3",
                "3.5",
                "4",
                "4.5",
                "5"
            ]
        },{
            "name": "Enfermedades observadas",
            "type_format": "text"
        },{
            "name": "Fecha de floración masculina",
            "type_format": "date",
            "description": "Día en la que la mitad de las plantas están en antesis"
        },{
            "name": "Fecha de floración femenina",
            "type_format": "date",
            "description": "Día en la que la mitad de las plantas están en su primera floración femenina"
        },{
            "name": "Tolerencia al estrés hídrico",
            "type_format": "optional",
            "description": "Previo al riego o a la lluvia, observar el grado de acartuchamiento de las hojas. 1 = muy afectado, 5 = no afectado",
            "options": [
                "1",
                "1.5",
                "2",
                "2.5",
                "3",
                "3.5",
                "4",
                "4.5",
                "5"
            ]
        },{
            "name": "Sanidad",
            "type_format": "optional",
            "description": "A mitad de la fructificación observar el estado del cultivo. 1 = totalmente enfermo, 5 = sin síntomas",
            "options": [
                "1",
                "1.5",
                "2",
                "2.5",
                "3",
                "3.5",
                "4",
                "4.5",
                "5"
            ]
        },{
            "name": "Uniformidad",
            "type_format": "optional",
            "description": "1 = nada uniforme, 5 = totalmente uniforme",
            "options": [
                "1",
                "1.5",
                "2",
                "2.5",
                "3",
                "3.5",
                "4",
                "4.5",
                "5"
            ]
        },{
            "name": "Espiga volteada al madurar",
            "type_format": "optional",
            "description": "1 = muy erguida, 5 = muy volteada",
            "options": [
                "1",
                "1.5",
                "2",
                "2.5",
                "3",
                "3.5",
                "4",
                "4.5",
                "5"
            ]
        },{
            "name": "¿A qué crees que se debe la uniformidad observada?",
            "type_format": "text"
        },{
            "name": "Comentarios generales",
            "type_format": "text"
        }]
    },{
        "title": "Cosecha",
        "items": [{
            "name": "Plantas en pie (%)",
            "type_format": "numeric",
            "description": "Porcentaje de plantas en pie al momento de la cosecha"
        },{
            "name": "Superficie cosechada (ha)",
            "type_format": "numeric"
        },{
            "name": "Rinde total",
            "type_format": "numeric",
            "description": "Total de KG cosechados para cada material"
        },{
            "name": "Número de hileras de mazorca",
            "type_format": "numeric"
        },{
            "name": "Prolificidad",
            "type_format": "numeric",
            "description": "Números de mazorcas por planta"
        },{
            "name": "Fecha de grano lechoso",
            "type_format": "date"
        },{
            "name": "Fecha de madurez fisiológica",
            "type_format": "date"
        },{
            "name": "Fecha de cosecha",
            "type_format": "date"
        },{
            "name": "Humedad de cosecha (%)",
            "type_format": "numeric"
        },{
            "name": "Comentarios generales",
            "type_format": "text"
        }]
    },{
        "title": "Poscosecha y degustación",
        "items": [{
            "name": "Palatabilidad (grano)",
            "type_format": "optional",
            "options": [
                "1",
                "1.5",
                "2",
                "2.5",
                "3",
                "3.5",
                "4",
                "4.5",
                "5"
            ]
        },{
            "name": "¿Cuánto te gustó este maíz?",
            "description": "1 = me disgustó muchísimo, 3 = ni me gustó ni me disgustó, 5 = me gustó muchísimo",
            "type_format": "optional",
            "options": [
                "1",
                "1.5",
                "2",
                "2.5",
                "3",
                "3.5",
                "4",
                "4.5",
                "5"
            ]
        },{
            "name": "Dulzura (maíz dulce)",
            "type_format": "optional",
            "options": [
                "1",
                "1.5",
                "2",
                "2.5",
                "3",
                "3.5",
                "4",
                "4.5",
                "5"
            ]
        },{
            "name": "Jugocidad",
            "type_format": "optional",
            "options": [
                "1",
                "1.5",
                "2",
                "2.5",
                "3",
                "3.5",
                "4",
                "4.5",
                "5"
            ]
        },{
            "name": "Tamaño de granos",
            "type_format": "optional",
            "options": [
                "1",
                "1.5",
                "2",
                "2.5",
                "3",
                "3.5",
                "4",
                "4.5",
                "5"
            ]
        },{
            "name": "Utilidad o usos culinarios",
            "type_format": "text"
        },{
            "name": "Comentarios generales",
            "type_format": "text"
        }]
    },{
        "title": "Conclusiones",
        "items": [{
            "name": "¿Volverías a sembrar esta semilla?",
            "type_format": "optional",
            "options": [
                "Sí",
                "No",
                "Quizás"
            ]
        },{
            "name": "Comentarios",
            "type_format": "text"
        }]
    }]
}
