{
    "form": "evaluacion",
    "crop": "tomate",
    "title": "evaluacion",
    "obj": "evaluation",
    "managment": "convencional",
    "env": [
        "a campo en suelo",
        "bajo cubierta en suelo",
        "a campo en contenedores",
        "bajo cubierta en contenedores"
    ],
    "stages": [{
        "title": "Parcela",
        "items": [{
            "name": "Ubicación",
            "type_format": "text",
            "description": "Localidad o coordenadas donde fueron sembradas las semillas"
        },{
            "name": "Superficie (m²)",
            "type_format": "numeric",
            "description": "Expresada en metros cuadrados"
        },{
            "name": "Cantidad de surcos",
            "type_format": "numeric"
        },{
            "name": "Distancia entre surcos (cm)",
            "description": "Expresada en centímetros",
            "type_format": "numeric"
        },{
            "name": "Posición topográfica",
            "type_format": "optional",
            "options": [
                "Loma",
                "Medialoma",
                "Bajo dulce",
                "Bajo alcalino",
                "No sé"
            ]
        },{
            "name": "Textura de suelo",
            "type_format": "text"
        },{
            "name": "Cultivo antecesor",
            "type_format": "text"
        },{
            "name":"Riego",
            "type_format":"optional",
            "options":[
                "Sí",
                "No"
            ]
        },{
            "name": "Cultivo asociado",
            "type_format":"text"
        },{
            "name": "Profundidad de suelo (cm)",
            "type_format":"numeric"
        },{
            "name":"Taxonomía de suelo",
            "type_format":"text"
        },{
            "name":"Comentarios generales",
            "type_format":"text"
            
        }]
    },{
        "title": "Siembra",
        "items": [{
            "name": "Método de siembra",
            "type_format": "optional",
            "description": "Cómo sembraste las semillas",
            "options": [
                "Almácigos",
                "Al voleo",
                "Chorrillo",
                "Por golpe"
            ]
        },{
            "name": "Fecha de siembra",
            "type_format": "date"
        },{
            "name": "Semillas sembradas",
            "description": "Almácigos: CANTIDAD / Al voleo: GRAMOS / Chorrillo: GRAMOS / Por golpe: CANTIDAD POR GOLPE",
            "type_format": "numeric"
        },{
            "name": "Densidad",
            "description": "plantas buscadas/m²",
            "type_format": "numeric"
        },{
            "name": "Comentarios generales",
            "type_format": "text"
        }]
    },{
        "title": "Emergencia e implantación",
        "items": [{
            "name": "Fecha de emergencia",
            "description": "Fecha en la que emerge el 70% de las plántulas",
            "type_format": "date"
        },{
            "name": "Plántulas emergidas",
            "type_format": "numeric",
            "description": "Cantidad de plántulas/m² que emergieron"
        },{
            "name": "Fecha de trasplante",
            "description": "SÖLO PARA SIEMBRA POR ALMÄCIGOS",
            "type_format": "date"
        },{
            "name": "Plántulas transplantadas",
            "description": "Cantidad: SÓLO PARA SIEMBRA POR ALMÄCIGOS",
            "type_format": "numeric"
        },{
            "name": "Distancia entre plantas (cm)",
            "description": "Al transplante: SÓLO PARA SIEMBRA POR ALMÄCIGOS",
            "type_format": "numeric"
        },{
            "name": "Plántaluas implantadas",
            "type_format": "numeric",
            "description": "cantidad de plantas logradas/m² vivas 15 días despues de la fecha de emergenca"
        },{
            "name": "Comentarios generales",
            "type_format": "text"
        }]
    },{
        "title": "Labores",
        "items": [{
            "name": "Desbrote",
            "description": "Remoción de los brotes axilares",
            "type_format": "optional",
            "options": ["Si", "No"]
        },{
            "name": "Tutorado",
            "type_format": "optional",
            "options": ["Sí", "No"]
        },{
            "name": "Conducción",
            "type_format": "optional",
            "options": ["Si", "No"]
        },{
            "name": "Deshoje",
            "type_format": "optional",
            "options": ["Si", "No"]
        },{
            "name": "Riego",
            "type_format": "optional_multiple",
            "options": [
                "Por goteo",
                "Por aspersión",
                "Por microaspersión",
                "Por surco",
                "Con manguera/regadera",
                "Sin riego"
            ]
        },{
            "name": "Fertilización",
            "type_format": "optional_multiple",
            "options": [
                "Fertilizantes sintéticos",
                "Biopreparados",
                "Compost",
                "Abono verde",
                "Preparados biodinámicos",
                "Otro",
                "Sin fertilización"
            ]
        },{
            "name": "Control de malezas",
            "type_format": "optional_multiple",
            "options": [
                "Herbicidas sintéticos",
                "Control mecánico",
                "Otro",
                "Sin control"
            ]
        },{
            "name": "Control de plagas",
            "type_format": "optional_multiple",
            "options": [
                "Plaguicidas sintéticos",
                "Biopreparados",
                "Preparados biodinámicos",
                "Control mecánico",
                "Otro",
                "Sin control"
            ]
        },{
            "name": "Lámina de riego aplicada (mm)",
            "type_format": "numeric"
        },{
            "name": "Precipitación (mm)",
            "type_format": "numeric"
        },{
            "name": "Comentarios generales",
            "type_format": "text"
        }]
    },{
        "title": "Desarrollo y fructificación",
        "items": [{
            "name": "Fecha de primera floración",
            "description": "Día en la que la mitad de las plantas están en su primera floración",
            "type_format": "date"
        },{
            "name": "Tolerancia al estrés hídrico",
            "type_format": "optional",
            "options": [
                "1",
                "1.5",
                "2",
                "2.5",
                "3",
                "3.5",
                "4",
                "4.5",
                "5"
            ],
            "description": "Previo al riego, observar el grado de marchitamiento de las hojas, 1 = muy afectado, 5 = no afectado"
        },{
            "name": "Tolerancia a la quemadura del sol",
            "description": "Cuando esté fructificando, ver si tiene sintomas como hojas curvadas o con bordes quemados",
            "type_format": "optional",
            "options": [
                "1",
                "1.5",
                "2",
                "2.5",
                "3",
                "3.5",
                "4",
                "4.5",
                "5"
            ]
        },{
            "name": "Sanidad",
            "type_format": "optional",
            "description": "A mitad de la fructificación observar el estado del cultivo. 1=totalmente enfermo, 2=sin sintomas",
            "options": [
                "1",
                "1.5",
                "2",
                "2.5",
                "3",
                "3.5",
                "4",
                "4.5",
                "5"
            ]
        },{
            "name": "Uniformidad",
            "type_format": "optional",
            "description": "1 = nada uniforme, 5 = totalmente uniforme",
            "options": [
                "1",
                "1.5",
                "2",
                "2.5",
                "3",
                "3.5",
                "4",
                "4.5",
                "5"
            ]
        },{
            "name": "¿A qué crees que se debe la uniformidad observada?",
            "type_format": "text"
        },{
            "name": "Comentarios generales",
            "type_format": "text"
        }]
    },{
        "title": "Labores durante fructificación",
        "items": [{
            "name": "Raleo de frutos",
            "type_format": "optional",
            "options": ["Sí", "No"]
        },{
            "name": "Eliminación del brote apical",
            "type_format": "optional",
            "options": ["Si", "No"]
        }]
    },{
        "title": "Cosecha y poscosecha",
        "items": [{
            "name": "Fecha de cosecha #1",
            "type_format": "date"
        },{
            "name": "Rendimiento de cosecha #1(kg)",
            "description": "Total de kilogramos cosechados para cada semilla",
            "type_format": "numeric"
        },{
            "name": "Fecha de cosecha #2",
            "type_format": "date"
        },{
            "name": "Rendimiento de cosecha #2(kg)",
            "description": "Total de kilogramos cosechados para cada semilla",
            "type_format": "numeric"
        },{
            "name": "Fecha de cosecha #3",
            "type_format": "date"
        },{
            "name": "Rendimiento de cosecha #3(kg)",
            "description": "Total de kilogramos cosechados para cada semilla",
            "type_format": "numeric"
        },{
            "name": "Fecha de cosecha #4",
            "type_format": "date"
        },{
            "name": "Rendimiento de cosecha #4(kg)",
            "description": "Total de kilogramos cosechados para cada semilla",
            "type_format": "numeric"
        },{
            "name": "Fecha de cosecha #5",
            "type_format": "date"
        },{
            "name": "Rendimiento de cosecha #5(kg)",
            "description": "Total de kilogramos cosechados para cada semilla",
            "type_format": "numeric"
        },{
            "name": "Fecha de cosecha #6",
            "type_format": "date"
        },{
            "name": "Rendimiento de cosecha #6(kg)",
            "description": "Total de kilogramos cosechados para cada semilla",
            "type_format": "numeric"
        },{
            "name": "Fecha de cosecha #7",
            "type_format": "date"
        },{
            "name": "Rendimiento de cosecha #7(kg)",
            "description": "Total de kilogramos cosechados para cada semilla",
            "type_format": "numeric"
        },{
            "name": "Fecha de cosecha #8",
            "type_format": "date"
        },{
            "name": "Rendimiento de cosecha #8(kg)",
            "description": "Total de kilogramos cosechados para cada semilla",
            "type_format": "numeric"
        },{
            "name": "Fecha de cosecha #9",
            "type_format": "date"
        },{
            "name": "Rendimiento de cosecha #9(kg)",
            "description": "Total de kilogramos cosechados para cada semilla",
            "type_format": "numeric"
        },{
            "name": "Color de fruto al momento de cosechar",
            "type_format": "optional",
            "options": [
                "A la totalidad de su coloración",
                "A 3/4 de su coloración",
                "A mitad de su coloración",
                "Completamente verde"
            ]
        },{
            "name": "Duración poscosecha (días)",
            "description": "Tomar una muestra de 10 tomates y observar los días que duran hasta ser inusables",
            "type_format": "numeric"
        }]
    },{
        "title": "Degustación",
        "items": [{
            "name": "¿Cuánto te gustó este tomate?",
            "description": "1 = me disgustó muchísimo, 3 = ni me gustó ni me disgustó, 5 = me gustó muchísimo",
            "type_format": "optional",
            "options": [
                "1",
                "1.5",
                "2",
                "2.5",
                "3",
                "3.5",
                "4",
                "4.5",
                "5"
            ]
        },{
            "name": "Dulzura",
            "description": "1 = nada dulce, 5 = muy dulce",
            "type_format": "optional",
            "options": [
                "1",
                "1.5",
                "2",
                "2.5",
                "3",
                "3.5",
                "4",
                "4.5",
                "5"
            ]
        },{
            "name": "Acidez",
            "description": "1 = nada ácido, 5 = muy ácido",
            "type_format": "optional",
            "options": [
                "1",
                "1.5",
                "2",
                "2.5",
                "3",
                "3.5",
                "4",
                "4.5",
                "5"
            ]
        },{
            "name": "Consistencia de la pulpa",
            "description": "1 = muy blanda, 5 = muy dura",
            "type_format": "optional",
            "options": [
                "1",
                "1.5",
                "2",
                "2.5",
                "3",
                "3.5",
                "4",
                "4.5",
                "5"
            ]
        },{
            "name": "Grosor de la piel",
            "description": "1 = muy fina, 5 = muy gruesa",
            "type_format": "optional",
            "options": [
                "1",
                "1.5",
                "2",
                "2.5",
                "3",
                "3.5",
                "4",
                "4.5",
                "5"
            ]
        },{
            "name": "Persistencia del sabor",
            "description": "1 = nada persistente, 5 = muy persistente",
            "type_format": "optional",
            "options": [
                "1",
                "1.5",
                "2",
                "2.5",
                "3",
                "3.5",
                "4",
                "4.5",
                "5"
            ]
        },{
            "name": "Intensidad del sabor",
            "description": "1 = nada intenso, 5 = muy intenso",
            "type_format": "optional",
            "options": [
                "1",
                "1.5",
                "2",
                "2.5",
                "3",
                "3.5",
                "4",
                "4.5",
                "5"
            ]
        },{
            "name": "Cantidad de semillas",
            "type_format": "optional",
            "description": "1 = sin semillas, 5 = muchas semillas",
            "options": [
                "1",
                "1.5",
                "2",
                "2.5",
                "3",
                "3.5",
                "4",
                "4.5",
                "5"
            ]
        },{
            "name": "Utilidad o usos culinarios",
            "type_format": "text"
        },{
            "name": "Comentarios generales",
            "type_format": "text"
        }]
    },{
        "title": "Conclusiones",
        "items": [{
            "name": "¿Volverías a sembrar esta semilla?",
            "type_format": "optional",
            "options": [
                "Sí",
                "No"
            ]
        },{
            "name": "Otros comentarios sobre esta semilla",
            "type_format": "text"
        }]
    }]
}
