{
    "form": "default",
    "crop": "maiz",
    "title": "evaluacion",
    "obj": "evaluation",
    "managment": "",
    "env": [
        "a contenedor",
        "a cielo abierto"
    ],
    "stages": [{
        "title": "Plantacion",
        "items": [
            {
            "name": "fecha de plantacion",
            "type_format": "date"
        },{
            "name": "Sanidad",
            "type_format": "optional_multiple",
            "options": ["bueno","malo","excelente","perfecto"]
        },{
            "name": "productos",
            "type_format": "optional_multiple",
            "options": [1,2,3,4]
        }
        ]
    },{
        "title": "Cosecha",
        "items": [
            {
            "name": "Generacion",
            "type_format": "date"
        },{
            "name": "Peso del fruto",
            "type_format": "optional_multiple",
            "options": ["bueno","malo","excelente","perfecto"]
        },{
            "name": "Productos",
            "type_format": "optional_multiple",
            "options": [1,2,3,4]
        }
        ]
    }]
}
