<?xml version="1.0" encoding="iso-8859-1"?>
<!-- Generator: Adobe Illustrator 18.0.0, SVG Export Plug-In . SVG Version: 6.00 Build 0)  -->
<!DOCTYPE svg PUBLIC "-//W3C//DTD SVG 1.1//EN" "http://www.w3.org/Graphics/SVG/1.1/DTD/svg11.dtd">
<svg version="1.1" id="Capa_1" xmlns="http://www.w3.org/2000/svg" xmlns:xlink="http://www.w3.org/1999/xlink" x="0px" y="0px"
	 viewBox="0 0 65.555 65.555" style="enable-background:new 0 0 65.555 65.555;" xml:space="preserve" width='36px' height='36px'>
<g>
	<path style="fill:#1D1D1B;" d="M59.51,33.55c-3.509-6.595-11.311-7.927-15.481-13.781c-0.603-0.847-1.989-0.085-1.421,0.83
		c2.19,3.528,5.452,5.264,8.813,7.509c5.366,3.583,8.46,8.567,8.251,15.167C59.22,57.544,43.596,64.458,31.174,63.52
		c-13.1-0.988-31.1-9.107-23.651-25.362c5.028-10.973,17.414-12.46,25.929-19.48c3.21,1.222,7.07,1.471,10.257,0.479
		c0.414-0.129,0.519-0.634,0.344-0.951c0.072-0.233,0.03-0.502-0.191-0.694c0.26,0.014,0.533-0.102,0.648-0.408
		c0.46-1.22,0.187-2.183-0.505-2.932c0.818-0.455,0.974-1.448,0.641-2.387c-0.166-0.467-0.455-0.854-0.821-1.179
		c2.123-0.326,3.986-2.128,3.262-4.479c-0.335-1.088-1.29-1.854-2.439-1.867c-0.506-0.006-1.006,0.138-1.422,0.399
		c-0.005-0.048-0.007-0.1-0.014-0.145c-0.155-1.007-0.74-1.965-1.64-2.472c-1.548-0.871-3.404-0.075-4.198,1.339
		c-1.387-2.15-4.315-4.703-6.034-2.587c-2.022,2.488,0.717,6.552,2.356,8.474c-1.466,0.512-2.338,1.509-1.354,3.334
		c0.035,0.064,0.083,0.105,0.136,0.136c-0.823,0.377-1.499,0.93-1.588,1.754c-0.073,0.684,0.279,1.185,0.787,1.392
		c-0.259,0.332-0.345,0.758-0.123,1.313c0.014,0.037,0.038,0.061,0.058,0.091c-0.12,0.213-0.105,0.502,0.163,0.645
		c0.139,0.074,0.291,0.133,0.434,0.203c-10.81,6.456-25.572,9.632-28.044,24.084C1.653,56.901,16.28,63.672,28.445,65.246
		c12.586,1.629,27.818-3.104,32.202-16.32C62.298,43.947,61.99,38.21,59.51,33.55z M34.175,17.53
		c-0.135-0.221-0.413-0.361-0.673-0.194c-0.019,0.012-0.039,0.024-0.058,0.036c-0.325-0.076-0.656-0.163-0.988-0.25
		c0.003-0.053,0.001-0.109-0.017-0.171c-0.47-1.582,5.608-0.717,5.972-0.633c1.442,0.335,2.738,0.938,3.972,1.705
		C39.507,18.224,36.936,18.107,34.175,17.53z M32.44,2.798c0.251-2.767,3.909,1.984,4.667,2.613c0.43,0.356,1.138,0.033,0.979-0.567
		c0.243-1.237,1.906-2.227,2.964-1.295c0.416,0.366,0.626,0.937,0.623,1.483c-0.003,0.564-0.394,1.034-0.239,1.59
		c0.065,0.233,0.311,0.448,0.564,0.43c0.336-0.025,0.583-0.182,0.773-0.403c0.16,0.01,0.321-0.059,0.425-0.251
		c0.681-1.26,2.484-0.832,2.54,0.601c0.068,1.759-1.783,2.19-3.168,2.098c-0.337-0.022-0.566,0.188-0.673,0.457
		c-0.79-0.276-1.61-0.452-2.282-0.578c-1.015-0.191-3.25-0.317-5.052,0.061c0.023-0.107,0.017-0.222-0.041-0.333
		C33.648,7.04,32.263,4.752,32.44,2.798z M39.665,10.321c1.659,0.354,4.118,1.013,3.554,3.193c-2.228-1.472-6.306-1.793-8.06-1.509
		c-0.535,0.087-1.325,0.231-2.081,0.492c0.016-0.063,0.021-0.13-0.005-0.205C31.973,9.123,38.733,10.121,39.665,10.321z
		 M33.205,13.797c0.452-0.205,0.921-0.358,1.408-0.457c0.975-0.232,2.028-0.303,3.031-0.245c1.582,0.093,6.65,1.057,5.678,3.681
		c-0.05,0.134-0.04,0.248-0.009,0.351c-2.343-1.571-5.161-2.472-7.997-2.368c-0.69,0.025-1.928,0.137-2.823,0.535
		C32.177,14.4,32.407,13.896,33.205,13.797z"/>
	<path style="fill:#1D1D1B;" d="M38.53,38.244c-3.883-3.226-9.467-2.261-13.782-0.512c-0.481,0.195-0.632,0.666-0.531,1.05
		c-1.999,7.734,10.091,15.532,15.752,8.951C42.55,44.735,41.361,40.596,38.53,38.244z M38.375,46.712
		c-2.342,2.481-6.001,1.86-8.575,0.205c-2.879-1.85-4.208-4.431-4.685-7.593c0.025-0.005,0.045,0.001,0.071-0.005
		c3.134-0.832,6.5-2.003,9.742-0.97C38.235,39.403,41.321,43.591,38.375,46.712z"/>
	<path style="fill:#1D1D1B;" d="M38.703,44.451c-1.289-0.374-2.608-0.273-3.9-0.781c-1.275-0.501-2.648-1.368-3.587-2.377
		c-0.242-0.26-0.694,0.08-0.497,0.384c0.93,1.434,1.882,2.476,3.457,3.251c1.273,0.626,3.132,1.246,4.527,0.754
		C39.282,45.478,39.335,44.635,38.703,44.451z"/>
</g>
<g>
</g>
<g>
</g>
<g>
</g>
<g>
</g>
<g>
</g>
<g>
</g>
<g>
</g>
<g>
</g>
<g>
</g>
<g>
</g>
<g>
</g>
<g>
</g>
<g>
</g>
<g>
</g>
<g>
</g>
</svg>
