[{
    "relation": ["delegate_permission/common.handle_all_urls"],
    "target" : { "namespace": "Bioleft", "package_name": "org.bioleft.plataforma.twa",
                 "sha256_cert_fingerprints": ["63:78:03:1F:40:D1:D0:7F:CA:8E:16:4E:33:06:33:AB:5D:1D:66:0E:49:B9:D1:9E:61:16:3E:4F:CE:B2:62:E1"] }
}]
