{
    "attributes": [
        {
           "name": "Localidad donde se desarrolló",
           "input": "text"
        },{
           "name": "Lugar de recolección",
           "input": "text"
        },{
           "name": "Fecha de recolección",
           "input": "date"
        },{
           "name": "Rendimiento",
           "options": [
               "bajo",
               "medio",
               "alto"
           ]
        },{
            "name": "ciclo",
            "options": [
                "precoz",
                "intermedio",
                "tardío"
            ]
        }
    ]
}
